{
  "AWSTemplateFormatVersion": "2010-09-09",
  "Description": "[v0.0.1] A test for VPC creation.",
  "Resources": {
    "Vpc": {
      "Type": "AWS::EC2::VPC",
      "Properties": {
        "CidrBlock": "10.0.0.0/16",
        "InstanceTenancy": "default",
        "Tags": [
          {
            "Key": "scripted",
            "Value": true
          },
          {
            "Key": "stackName",
            "Value": "Vpc"
          },
          {
            "Key": "stageStage",
            "Value": "dev"
          },
          {
            "Key": "Name",
            "Value": "Vpc-dev"
          }
        ]
      }
    },
    "PublicSubnet1": {
      "Type": "AWS::EC2::Subnet",
      "Properties": {
        "AvailabilityZone": "eu-west-2a",
        "CidrBlock": "10.0.0.0/24",
        "MapPublicIpOnLaunch": true,
        "VpcId": {
          "Ref": "Vpc"
        },
        "Tags": [
          {
            "Key": "StackName",
            "Value": "Vpc"
          },
          {
            "Key": "Name",
            "Value": "Vpc-Pub-AZ1-dev"
          },
          {
            "Key": "scripted",
            "Value": true
          },
          {
            "Key": "stage",
            "Value": "dev"
          },
          {
            "Key": "VpcName",
            "Value": "Vpc-dev"
          }
        ]
      }
    },
    "PublicSubnet2": {
      "Type": "AWS::EC2::Subnet",
      "Properties": {
        "AvailabilityZone": "eu-west-2b",
        "CidrBlock": "10.0.1.0/24",
        "MapPublicIpOnLaunch": true,
        "VpcId": {
          "Ref": "Vpc"
        },
        "Tags": [
          {
            "Key": "StackName",
            "Value": "Vpc"
          },
          {
            "Key": "Name",
            "Value": "Vpc-Pub-AZ2-dev"
          },
          {
            "Key": "scripted",
            "Value": true
          },
          {
            "Key": "stage",
            "Value": "dev"
          },
          {
            "Key": "VpcName",
            "Value": "Vpc-dev"
          }
        ]
      }
    },
    "PrivateSubnet1": {
      "Type": "AWS::EC2::Subnet",
      "Properties": {
        "AvailabilityZone": "eu-west-2a",
        "CidrBlock": "10.0.2.0/24",
        "MapPublicIpOnLaunch": false,
        "VpcId": {
          "Ref": "Vpc"
        },
        "Tags": [
          {
            "Key": "StackName",
            "Value": "Vpc"
          },
          {
            "Key": "Name",
            "Value": "Vpc-Pri-AZ1-dev"
          },
          {
            "Key": "scripted",
            "Value": true
          },
          {
            "Key": "stage",
            "Value": "dev"
          },
          {
            "Key": "VpcName",
            "Value": "Vpc-dev"
          }
        ]
      }
    },
    "PrivateSubnet2": {
      "Type": "AWS::EC2::Subnet",
      "Properties": {
        "AvailabilityZone": "eu-west-2b",
        "CidrBlock": "10.0.3.0/24",
        "MapPublicIpOnLaunch": false,
        "VpcId": {
          "Ref": "Vpc"
        },
        "Tags": [
          {
            "Key": "StackName",
            "Value": "Vpc"
          },
          {
            "Key": "Name",
            "Value": "Vpc-Pri-AZ2-dev"
          },
          {
            "Key": "scripted",
            "Value": true
          },
          {
            "Key": "stage",
            "Value": "dev"
          },
          {
            "Key": "VpcName",
            "Value": "Vpc-dev"
          }
        ]
      }
    },
    "InternetGateway": {
      "Type": "AWS::EC2::InternetGateway",
      "Properties": {
        "Tags": [
          {
            "Key": "Name",
            "Value": "Vpc-InternetGateway-dev"
          },
          {
            "Key": "scripted",
            "Value": true
          },
          {
            "Key": "StackName",
            "Value": "Vpc"
          },
          {
            "Key": "stage",
            "Value": "dev"
          }
        ]
      }
    },
    "InternetGatewayAttachment": {
      "Type": "AWS::EC2::VPCGatewayAttachment",
      "Properties": {
        "InternetGatewayId": {
          "Ref": "InternetGateway"
        },
        "VpcId": {
          "Ref": "Vpc"
        }
      }
    },
    "PublicRouteTable": {
      "Type": "AWS::EC2::RouteTable",
      "Properties": {
        "VpcId": {
          "Ref": "Vpc"
        },
        "Tags": [
          {
            "Key": "Name",
            "Value": "Vpc-PublicRouteTable-dev"
          },
          {
            "Key": "scripted",
            "Value": true
          },
          {
            "Key": "StackName",
            "Value": "Vpc"
          },
          {
            "Key": "stage",
            "Value": "dev"
          }
        ]
      }
    },
    "DefaultPublicRoute": {
      "Type": "AWS::EC2::Route",
      "DependsOn": "InternetGatewayAttachment",
      "Properties": {
        "RouteTableId": {
          "Ref": "PublicRouteTable"
        },
        "GatewayId": {
          "Ref": "InternetGateway"
        },
        "DestinationCidrBlock": "0.0.0.0/0"
      }
    },
    "PublicSubnet1RouteTableAssociation": {
      "Type": "AWS::EC2::SubnetRouteTableAssociation",
      "Properties": {
        "RouteTableId": {
          "Ref": "PublicRouteTable"
        },
        "SubnetId": {
          "Ref": "PublicSubnet1"
        }
      }
    }
  },
  "Outputs": {
    "ServerlessDeploymentBucketName": {
      "Value": "fpserverlessrepo"
    },
    "VpcId": {
      "Description": "A reference to the created VPC",
      "Value": {
        "Ref": "Vpc"
      }
    },
    "PublicSubnets": {
      "Description": "A CSV list of the public subnets",
      "Value": {
        "Fn::Join": [
          ",",
          [
            {
              "Ref": "PublicSubnet1"
            },
            {
              "Ref": "PublicSubnet2"
            }
          ]
        ]
      }
    },
    "PublicSubnetOne": {
      "Description": "Public subnet one",
      "Value": {
        "Ref": "PublicSubnet1"
      }
    },
    "PublicSubnetTwo": {
      "Description": "Public subnet two",
      "Value": {
        "Ref": "PublicSubnet2"
      }
    },
    "PrivateSubnets": {
      "Description": "A CSV list of the private subnets",
      "Value": {
        "Fn::Join": [
          ",",
          [
            {
              "Ref": "PrivateSubnet1"
            },
            {
              "Ref": "PrivateSubnet2"
            }
          ]
        ]
      }
    }
  }
}